EESchema Schematic File Version 4
LIBS:pqws-power-hw-cache
EELAYER 26 0
EELAYER END
$Descr A4 11693 8268
encoding utf-8
Sheet 4 4
Title ""
Date ""
Rev ""
Comp ""
Comment1 ""
Comment2 ""
Comment3 ""
Comment4 ""
$EndDescr
Text Notes 3750 2850 0    50   ~ 0
VinMin = 3.0V\nVinMax = 9.0V\nVout = 5V\nIout = 1.0A
Connection ~ 7450 3200
Wire Wire Line
	7450 3500 7450 3200
Wire Wire Line
	7450 3200 7850 3200
Wire Wire Line
	7850 3200 7950 3200
Connection ~ 7850 3200
Wire Wire Line
	7850 3500 7850 3200
Wire Wire Line
	7850 3900 7850 3800
Wire Wire Line
	7450 3800 7450 3900
$Comp
L Device:C C406
U 1 1 5B0F5916
P 7850 3650
F 0 "C406" H 7965 3696 50  0000 L CNN
F 1 "47uF" H 7965 3605 50  0000 L CNN
F 2 "Capacitor_SMD:C_1206_3216Metric_Pad1.39x1.80mm_HandSolder" H 7888 3500 50  0001 C CNN
F 3 "~" H 7850 3650 50  0001 C CNN
F 4 "GRM31CC80J476KE18L" H 7850 3650 50  0001 C CNN "Part Number"
	1    7850 3650
	1    0    0    -1  
$EndComp
$Comp
L Device:C C405
U 1 1 5B0F591E
P 7450 3650
F 0 "C405" H 7565 3696 50  0000 L CNN
F 1 "10uF" H 7565 3605 50  0000 L CNN
F 2 "Capacitor_SMD:C_0603_1608Metric_Pad0.99x1.00mm_HandSolder" H 7488 3500 50  0001 C CNN
F 3 "~" H 7450 3650 50  0001 C CNN
F 4 "GRM188R60J106ME47D" H 7450 3650 50  0001 C CNN "Part Number"
	1    7450 3650
	1    0    0    -1  
$EndComp
Wire Wire Line
	6300 3850 6300 3900
$Comp
L power:GND #PWR0104
U 1 1 5B0F5926
P 6300 3900
F 0 "#PWR0104" H 6300 3650 50  0001 C CNN
F 1 "GND" H 6305 3727 50  0000 C CNN
F 2 "" H 6300 3900 50  0001 C CNN
F 3 "" H 6300 3900 50  0001 C CNN
	1    6300 3900
	1    0    0    -1  
$EndComp
Wire Wire Line
	6650 3200 7000 3200
Connection ~ 6650 3200
Wire Wire Line
	6650 3550 6650 3200
Wire Wire Line
	6650 4150 6650 3850
Wire Wire Line
	6050 4150 6650 4150
Wire Wire Line
	6050 3800 6050 4150
Wire Wire Line
	6050 3500 6300 3500
Wire Wire Line
	6300 3500 6300 3550
$Comp
L Device:R R403
U 1 1 5B0F5934
P 6300 3700
F 0 "R403" H 6230 3654 50  0000 R CNN
F 1 "100K" H 6230 3745 50  0000 R CNN
F 2 "Resistor_SMD:R_0603_1608Metric_Pad0.99x1.00mm_HandSolder" V 6230 3700 50  0001 C CNN
F 3 "~" H 6300 3700 50  0001 C CNN
	1    6300 3700
	-1   0    0    1   
$EndComp
Wire Wire Line
	6300 3200 6650 3200
Connection ~ 6300 3200
Connection ~ 6300 3500
$Comp
L Device:R R402
U 1 1 5B0F593E
P 6300 3350
F 0 "R402" H 6230 3304 50  0000 R CNN
F 1 "523K" H 6230 3395 50  0000 R CNN
F 2 "Resistor_SMD:R_0603_1608Metric_Pad0.99x1.00mm_HandSolder" V 6230 3350 50  0001 C CNN
F 3 "~" H 6300 3350 50  0001 C CNN
	1    6300 3350
	-1   0    0    1   
$EndComp
$Comp
L Device:R R404
U 1 1 5B0F5945
P 6650 3700
F 0 "R404" H 6580 3654 50  0000 R CNN
F 1 "102K" H 6580 3745 50  0000 R CNN
F 2 "Resistor_SMD:R_0603_1608Metric_Pad0.99x1.00mm_HandSolder" V 6580 3700 50  0001 C CNN
F 3 "~" H 6650 3700 50  0001 C CNN
	1    6650 3700
	-1   0    0    1   
$EndComp
$Comp
L power:GND #PWR0105
U 1 1 5B0F594C
P 5250 3900
F 0 "#PWR0105" H 5250 3650 50  0001 C CNN
F 1 "GND" H 5255 3727 50  0000 C CNN
F 2 "" H 5250 3900 50  0001 C CNN
F 3 "" H 5250 3900 50  0001 C CNN
	1    5250 3900
	1    0    0    -1  
$EndComp
Wire Wire Line
	5650 4100 5650 4200
Wire Wire Line
	4650 3850 4650 3900
$Comp
L power:GND #PWR0106
U 1 1 5B0F5954
P 4650 3900
F 0 "#PWR0106" H 4650 3650 50  0001 C CNN
F 1 "GND" H 4655 3727 50  0000 C CNN
F 2 "" H 4650 3900 50  0001 C CNN
F 3 "" H 4650 3900 50  0001 C CNN
	1    4650 3900
	1    0    0    -1  
$EndComp
Wire Wire Line
	4650 3550 5250 3550
Wire Wire Line
	3700 3850 3700 3900
$Comp
L Device:C C403
U 1 1 5B0F595D
P 4650 3700
F 0 "C403" H 4765 3746 50  0000 L CNN
F 1 "100nF" H 4765 3655 50  0000 L CNN
F 2 "Capacitor_SMD:C_0603_1608Metric_Pad0.99x1.00mm_HandSolder" H 4688 3550 50  0001 C CNN
F 3 "~" H 4650 3700 50  0001 C CNN
F 4 "C3216X5R1E336M160AC" H 4650 3700 50  0001 C CNN "Part Number"
	1    4650 3700
	1    0    0    -1  
$EndComp
$Comp
L power:GND #PWR0107
U 1 1 5B0F5964
P 5650 4200
F 0 "#PWR0107" H 5650 3950 50  0001 C CNN
F 1 "GND" H 5655 4027 50  0000 C CNN
F 2 "" H 5650 4200 50  0001 C CNN
F 3 "" H 5650 4200 50  0001 C CNN
	1    5650 4200
	1    0    0    -1  
$EndComp
$Comp
L Device:C C401
U 1 1 5B0F596B
P 3700 3700
F 0 "C401" H 3815 3746 50  0000 L CNN
F 1 "33uF" H 3815 3655 50  0000 L CNN
F 2 "Capacitor_SMD:C_1206_3216Metric_Pad1.39x1.80mm_HandSolder" H 3738 3550 50  0001 C CNN
F 3 "~" H 3700 3700 50  0001 C CNN
F 4 "C3216X5R1E336M160AC" H 3700 3700 50  0001 C CNN "Part Number"
	1    3700 3700
	1    0    0    -1  
$EndComp
$Comp
L Device:R R401
U 1 1 5B0F5972
P 4800 3450
F 0 "R401" V 4593 3450 50  0000 C CNN
F 1 "10K" V 4684 3450 50  0000 C CNN
F 2 "Resistor_SMD:R_0603_1608Metric_Pad0.99x1.00mm_HandSolder" V 4730 3450 50  0001 C CNN
F 3 "~" H 4800 3450 50  0001 C CNN
	1    4800 3450
	0    1    1    0   
$EndComp
Wire Wire Line
	5250 2700 5250 3100
Wire Wire Line
	5500 2700 5250 2700
Wire Wire Line
	6050 2700 6050 3100
Wire Wire Line
	5800 2700 6050 2700
$Comp
L Device:L_Core_Ferrite L401
U 1 1 5B0F597E
P 5650 2700
F 0 "L401" V 5875 2700 50  0000 C CNN
F 1 "1.4uH" V 5784 2700 50  0000 C CNN
F 2 "Inductor_SMD:L_Coilcraft_XxL4020" H 5650 2700 50  0001 C CNN
F 3 "~" H 5650 2700 50  0001 C CNN
F 4 "XFL4020-152MEB" V 5650 2700 50  0001 C CNN "Part Number"
	1    5650 2700
	0    -1   -1   0   
$EndComp
$Comp
L lsd-kicad:TPS63070RNM U401
U 1 1 5B0F5985
P 5650 3500
F 0 "U401" H 5650 4167 50  0000 C CNN
F 1 "TPS63070RNM" H 5650 4076 50  0000 C CNN
F 2 "lsf-kicad-lib:VQFN-15_2.5x3_Pitch0.5mm" H 5650 3500 50  0001 C CNN
F 3 "http://www.ti.com/lit/ds/symlink/tps63070.pdf" H 5650 3500 50  0001 C CNN
	1    5650 3500
	1    0    0    -1  
$EndComp
$Comp
L power:GND #PWR0108
U 1 1 5B0F598C
P 6150 3750
F 0 "#PWR0108" H 6150 3500 50  0001 C CNN
F 1 "GND" H 6155 3577 50  0000 C CNN
F 2 "" H 6150 3750 50  0001 C CNN
F 3 "" H 6150 3750 50  0001 C CNN
	1    6150 3750
	1    0    0    -1  
$EndComp
Wire Wire Line
	6050 3600 6150 3600
Wire Wire Line
	6150 3600 6150 3750
Wire Wire Line
	6050 3200 6300 3200
Text HLabel 7950 3200 2    50   Input ~ 0
V_Out
Text HLabel 3700 3200 0    50   Input ~ 0
U_V_Bus
$Comp
L Jumper:SolderJumper_2_Open JP402
U 1 1 5B0F5997
P 7700 2950
F 0 "JP402" H 7700 3155 50  0000 C CNN
F 1 "bypass" H 7700 3064 50  0000 C CNN
F 2 "Jumper:SolderJumper-2_P1.3mm_Open_Pad1.0x1.5mm" H 7700 2950 50  0001 C CNN
F 3 "~" H 7700 2950 50  0001 C CNN
	1    7700 2950
	1    0    0    -1  
$EndComp
Wire Wire Line
	7850 2950 7850 3200
Text HLabel 7550 2950 0    50   Input ~ 0
U_V_Bus
$Comp
L Device:Jumper_NC_Dual JP401
U 1 1 5B0F59A0
P 5000 4350
F 0 "JP401" V 5046 4452 50  0000 L CNN
F 1 "PWM/PSM" V 4955 4452 50  0000 L CNN
F 2 "Jumper:SolderJumper-3_P1.3mm_Open_Pad1.0x1.5mm_NumberLabels" H 5000 4350 50  0001 C CNN
F 3 "~" H 5000 4350 50  0001 C CNN
	1    5000 4350
	0    -1   -1   0   
$EndComp
Wire Wire Line
	5250 3800 5250 3900
Wire Wire Line
	4950 3450 5000 3450
Wire Wire Line
	5150 3700 5150 4350
Wire Wire Line
	5150 4350 5100 4350
Wire Wire Line
	5150 3700 5250 3700
Wire Wire Line
	5000 4100 5000 3450
Connection ~ 5000 3450
Wire Wire Line
	5000 3450 5250 3450
$Comp
L power:GND #PWR0109
U 1 1 5B0F59AF
P 5000 4700
F 0 "#PWR0109" H 5000 4450 50  0001 C CNN
F 1 "GND" H 5005 4527 50  0000 C CNN
F 2 "" H 5000 4700 50  0001 C CNN
F 3 "" H 5000 4700 50  0001 C CNN
	1    5000 4700
	1    0    0    -1  
$EndComp
Wire Wire Line
	5000 4700 5000 4600
Text Notes 4500 4550 0    50   ~ 0
Short 2-3
Text Label 5250 2850 0    50   ~ 0
L1
Text Label 6050 2850 0    50   ~ 0
L2
$Comp
L Device:C C402
U 1 1 5B0F59B9
P 4150 3700
F 0 "C402" H 4035 3654 50  0000 R CNN
F 1 "100pF" H 4035 3745 50  0000 R CNN
F 2 "Capacitor_SMD:C_0603_1608Metric_Pad0.99x1.00mm_HandSolder" H 4188 3550 50  0001 C CNN
F 3 "~" H 4150 3700 50  0001 C CNN
	1    4150 3700
	-1   0    0    1   
$EndComp
$Comp
L Device:C C404
U 1 1 5B0F59C0
P 7000 3650
F 0 "C404" H 6885 3604 50  0000 R CNN
F 1 "100pF" H 6885 3695 50  0000 R CNN
F 2 "Capacitor_SMD:C_0603_1608Metric_Pad0.99x1.00mm_HandSolder" H 7038 3500 50  0001 C CNN
F 3 "~" H 7000 3650 50  0001 C CNN
	1    7000 3650
	-1   0    0    1   
$EndComp
Wire Wire Line
	3700 3200 4150 3200
Wire Wire Line
	3700 3200 3700 3550
Wire Wire Line
	4150 3550 4150 3200
Connection ~ 4150 3200
Wire Wire Line
	4650 3450 4650 3200
Connection ~ 4650 3200
Wire Wire Line
	4650 3200 5250 3200
Wire Wire Line
	7000 3800 7000 3900
Wire Wire Line
	7000 3500 7000 3200
Connection ~ 7000 3200
Wire Wire Line
	7000 3200 7450 3200
Text Label 6100 3500 0    50   ~ 0
FB
Text Label 6100 3600 0    50   ~ 0
FB2
Text Label 5050 3550 0    50   ~ 0
VAUX
Text Label 5150 4350 0    50   ~ 0
PS
Text Label 6450 4150 0    50   ~ 0
PG
Wire Wire Line
	5750 4450 5750 4100
Wire Wire Line
	4150 3900 4150 3850
$Comp
L Device:Net-Tie_2 NT401
U 1 1 5B0F59FE
P 6700 4800
F 0 "NT401" H 6700 4978 50  0000 C CNN
F 1 "GND" H 6700 4887 50  0000 C CNN
F 2 "NetTie:NetTie-2_SMD_Pad0.5mm" H 6700 4800 50  0001 C CNN
F 3 "~" H 6700 4800 50  0001 C CNN
	1    6700 4800
	1    0    0    -1  
$EndComp
$Comp
L power:GND #PWR0129
U 1 1 5B0F5A0B
P 6550 4800
F 0 "#PWR0129" H 6550 4550 50  0001 C CNN
F 1 "GND" H 6555 4627 50  0000 C CNN
F 2 "" H 6550 4800 50  0001 C CNN
F 3 "" H 6550 4800 50  0001 C CNN
	1    6550 4800
	1    0    0    -1  
$EndComp
Wire Wire Line
	6550 4800 6600 4800
Wire Wire Line
	6800 4800 6850 4800
$Comp
L power:GNDPWR #PWR0101
U 1 1 5B0F279D
P 6850 4800
F 0 "#PWR0101" H 6850 4600 50  0001 C CNN
F 1 "GNDPWR" H 6854 4646 50  0000 C CNN
F 2 "" H 6850 4750 50  0001 C CNN
F 3 "" H 6850 4750 50  0001 C CNN
	1    6850 4800
	1    0    0    -1  
$EndComp
$Comp
L power:GNDPWR #PWR0110
U 1 1 5B0F2937
P 7850 3900
F 0 "#PWR0110" H 7850 3700 50  0001 C CNN
F 1 "GNDPWR" H 7854 3746 50  0000 C CNN
F 2 "" H 7850 3850 50  0001 C CNN
F 3 "" H 7850 3850 50  0001 C CNN
	1    7850 3900
	1    0    0    -1  
$EndComp
$Comp
L power:GNDPWR #PWR0111
U 1 1 5B0F2960
P 7450 3900
F 0 "#PWR0111" H 7450 3700 50  0001 C CNN
F 1 "GNDPWR" H 7454 3746 50  0000 C CNN
F 2 "" H 7450 3850 50  0001 C CNN
F 3 "" H 7450 3850 50  0001 C CNN
	1    7450 3900
	1    0    0    -1  
$EndComp
$Comp
L power:GNDPWR #PWR0116
U 1 1 5B0F2989
P 7000 3900
F 0 "#PWR0116" H 7000 3700 50  0001 C CNN
F 1 "GNDPWR" H 7004 3746 50  0000 C CNN
F 2 "" H 7000 3850 50  0001 C CNN
F 3 "" H 7000 3850 50  0001 C CNN
	1    7000 3900
	1    0    0    -1  
$EndComp
$Comp
L power:GNDPWR #PWR0117
U 1 1 5B0F29B2
P 5750 4450
F 0 "#PWR0117" H 5750 4250 50  0001 C CNN
F 1 "GNDPWR" H 5754 4296 50  0000 C CNN
F 2 "" H 5750 4400 50  0001 C CNN
F 3 "" H 5750 4400 50  0001 C CNN
	1    5750 4450
	1    0    0    -1  
$EndComp
$Comp
L power:GNDPWR #PWR0118
U 1 1 5B0F29DB
P 4150 3900
F 0 "#PWR0118" H 4150 3700 50  0001 C CNN
F 1 "GNDPWR" H 4154 3746 50  0000 C CNN
F 2 "" H 4150 3850 50  0001 C CNN
F 3 "" H 4150 3850 50  0001 C CNN
	1    4150 3900
	1    0    0    -1  
$EndComp
$Comp
L power:GNDPWR #PWR0127
U 1 1 5B0F2A04
P 3700 3900
F 0 "#PWR0127" H 3700 3700 50  0001 C CNN
F 1 "GNDPWR" H 3704 3746 50  0000 C CNN
F 2 "" H 3700 3850 50  0001 C CNN
F 3 "" H 3700 3850 50  0001 C CNN
	1    3700 3900
	1    0    0    -1  
$EndComp
Wire Wire Line
	4150 3200 4650 3200
$EndSCHEMATC
