EESchema Schematic File Version 4
LIBS:pqws-power-hw-cache
EELAYER 26 0
EELAYER END
$Descr A4 11693 8268
encoding utf-8
Sheet 1 4
Title ""
Date ""
Rev ""
Comp ""
Comment1 ""
Comment2 ""
Comment3 ""
Comment4 ""
$EndDescr
$Comp
L lsd-kicad:PQ9-Connector PQ9
U 1 1 59C29771
P 9300 2650
F 0 "PQ9" H 9300 3150 50  0000 C CNN
F 1 "PQ9-Connector" V 9600 2650 50  0000 C CNN
F 2 "lsf-kicad-lib:PQ9" H 9300 2650 50  0001 C CNN
F 3 "" H 9300 2650 50  0001 C CNN
	1    9300 2650
	1    0    0    -1  
$EndComp
$Sheet
S 7200 2000 750  300 
U 5AEF6EAE
F0 "DCDC 3.3V" 50
F1 "DCDC3v3.sch" 50
F2 "V_Out" I R 7950 2150 50 
F3 "U_V_Bus" I L 7200 2150 50 
$EndSheet
$Comp
L power:GND #PWR0102
U 1 1 5AEFAAC7
P 9200 3350
F 0 "#PWR0102" H 9200 3100 50  0001 C CNN
F 1 "GND" H 9205 3177 50  0000 C CNN
F 2 "" H 9200 3350 50  0001 C CNN
F 3 "" H 9200 3350 50  0001 C CNN
	1    9200 3350
	1    0    0    -1  
$EndComp
$Comp
L power:GND #PWR0103
U 1 1 5AEFAAEC
P 9400 3350
F 0 "#PWR0103" H 9400 3100 50  0001 C CNN
F 1 "GND" H 9405 3177 50  0000 C CNN
F 2 "" H 9400 3350 50  0001 C CNN
F 3 "" H 9400 3350 50  0001 C CNN
	1    9400 3350
	1    0    0    -1  
$EndComp
NoConn ~ 8900 2450
Wire Wire Line
	9200 3250 9200 3350
Wire Wire Line
	9400 3250 9400 3350
Wire Wire Line
	7950 2150 8250 2150
Wire Wire Line
	8250 2150 8250 2550
Wire Wire Line
	8250 2550 8900 2550
NoConn ~ 8900 2350
$Sheet
S 5000 2250 550  300 
U 5AF49454
F0 "Battery and Charger" 50
F1 "Battery.sch" 50
F2 "U_V_Bus" I R 5550 2400 50 
$EndSheet
NoConn ~ 8900 2750
NoConn ~ 8900 2850
Wire Wire Line
	7950 2650 8900 2650
Wire Wire Line
	7050 2150 7200 2150
Wire Wire Line
	7050 2150 7050 2400
Wire Wire Line
	7050 2650 7200 2650
Wire Wire Line
	5550 2400 5800 2400
Connection ~ 7050 2400
Wire Wire Line
	7050 2400 7050 2650
$Sheet
S 7200 2500 750  300 
U 5B136B46
F0 "DCDC 5V" 50
F1 "DCDC5V.sch" 50
F2 "V_Out" I R 7950 2650 50 
F3 "U_V_Bus" I L 7200 2650 50 
$EndSheet
$Comp
L power:PWR_FLAG #FLG0102
U 1 1 5B144AC9
P 8650 4300
F 0 "#FLG0102" H 8650 4375 50  0001 C CNN
F 1 "PWR_FLAG" H 8650 4474 50  0000 C CNN
F 2 "" H 8650 4300 50  0001 C CNN
F 3 "~" H 8650 4300 50  0001 C CNN
	1    8650 4300
	1    0    0    -1  
$EndComp
$Comp
L power:GND #PWR0114
U 1 1 5B144B04
P 8650 4550
F 0 "#PWR0114" H 8650 4300 50  0001 C CNN
F 1 "GND" H 8655 4377 50  0000 C CNN
F 2 "" H 8650 4550 50  0001 C CNN
F 3 "" H 8650 4550 50  0001 C CNN
	1    8650 4550
	1    0    0    -1  
$EndComp
Wire Wire Line
	8650 4300 8650 4550
Text Label 8400 2650 0    50   ~ 0
V2
Text Label 8400 2550 0    50   ~ 0
V1
$Comp
L Graphic:Logo_Open_Hardware_Small LOGO1
U 1 1 5B15B9D4
P 7300 6850
F 0 "LOGO1" H 7300 7125 50  0001 C CNN
F 1 "Logo_Open_Hardware_Small" H 7300 6625 50  0001 C CNN
F 2 "Symbol:OSHW-Logo2_9.8x8mm_SilkScreen" H 7300 6850 50  0001 C CNN
F 3 "~" H 7300 6850 50  0001 C CNN
	1    7300 6850
	1    0    0    -1  
$EndComp
Wire Wire Line
	6400 2400 7050 2400
$Comp
L Switch:SW_DIP_x01 SW1
U 1 1 5B173660
P 6100 2400
F 0 "SW1" H 6150 2550 50  0000 C CNN
F 1 "Power" H 6100 2250 50  0000 C CNN
F 2 "Button_Switch_SMD:SW_DIP_SPSTx01_Slide_6.7x4.1mm_W8.61mm_P2.54mm_LowProfile" H 6100 2400 50  0001 C CNN
F 3 "" H 6100 2400 50  0001 C CNN
F 4 "DM01" H 6100 2400 50  0001 C CNN "Part Number"
	1    6100 2400
	1    0    0    -1  
$EndComp
NoConn ~ 8900 2250
Text Label 6500 2400 0    50   ~ 0
UVBUS_IN
$Comp
L power:PWR_FLAG #FLG0103
U 1 1 5B17BAE7
P 9100 4300
F 0 "#FLG0103" H 9100 4375 50  0001 C CNN
F 1 "PWR_FLAG" H 9100 4474 50  0000 C CNN
F 2 "" H 9100 4300 50  0001 C CNN
F 3 "~" H 9100 4300 50  0001 C CNN
	1    9100 4300
	1    0    0    -1  
$EndComp
$Comp
L power:GNDA #PWR0119
U 1 1 5B17BB2C
P 9100 4550
F 0 "#PWR0119" H 9100 4300 50  0001 C CNN
F 1 "GNDA" H 9105 4377 50  0000 C CNN
F 2 "" H 9100 4550 50  0001 C CNN
F 3 "" H 9100 4550 50  0001 C CNN
	1    9100 4550
	1    0    0    -1  
$EndComp
Wire Wire Line
	9100 4300 9100 4550
$Comp
L power:PWR_FLAG #FLG0105
U 1 1 5B17CD8D
P 9500 4300
F 0 "#FLG0105" H 9500 4375 50  0001 C CNN
F 1 "PWR_FLAG" H 9500 4474 50  0000 C CNN
F 2 "" H 9500 4300 50  0001 C CNN
F 3 "~" H 9500 4300 50  0001 C CNN
	1    9500 4300
	1    0    0    -1  
$EndComp
Wire Wire Line
	9500 4300 9500 4550
$Comp
L power:GNDPWR #PWR0128
U 1 1 5B17CF20
P 9500 4550
F 0 "#PWR0128" H 9500 4350 50  0001 C CNN
F 1 "GNDPWR" H 9504 4396 50  0000 C CNN
F 2 "" H 9500 4500 50  0001 C CNN
F 3 "" H 9500 4500 50  0001 C CNN
	1    9500 4550
	1    0    0    -1  
$EndComp
$EndSCHEMATC
